Graphics Options for Ambrose et al. Plankton Comunity Composition Study
…
It’s just an array containing the points of the vertexes of the polygons. Each polygon is passed as an array of points. We can work with that, although it is going to be easier to “flatten” the data structure.

This is a bit tricky, as we need to convert each array to a data frame and append them, retaining their cluster identities. This can be done in several ways. Here I convert the arrays to tibbles, then bind them into one tibble with bind_rows(), which conveniently allows you to label each entry with the source data frame (here the cluster number).

hullsdfs <- map(hull, as_tibble) 
hulls_df <- hullsdfs %>%
  bind_rows(.id = 'Cluster')
hulls_df
#> # A tibble: 32 x 3
#>    Cluster   NMDS1  NMDS2
#>    <chr>     <dbl>  <dbl>
#>  1 1       -0.0574 -1.07 
#>  2 1       -0.874  -0.780
#>  3 1       -0.603   0.144
#>  4 1       -0.0574 -1.07 
#>  5 2        0.429  -0.365
#>  6 2        0.326  -0.636
#>  7 2       -0.114  -0.267
#>  8 2       -0.258   0.364
#>  9 2        0.0323  0.521
#> 10 2        0.429  -0.365
#> # ... with 22 more rows
…
